// Jest Snapshot v1, https://goo.gl/fbAQLP

exports[`RecipeCard When RecipeCard is mounted has the expected html structure 1`] = `
<div
  class="flex"
>
  <div
    class="recipe-card v-card v-card--hover"
  >
    <div
      class="v-card__media"
      style="height: 200px;"
    >
      <div
        class="v-card__media__background"
      />
      <div
        class="v-card__media__content"
      />
    </div>
     
    <div
      class="v-card__title"
    >
       
    </div>
  </div>
</div>
`;
