// Jest Snapshot v1, https://goo.gl/fbAQLP

exports[`Recipe When Recipe page is mounted has the expected html structure 1`] = `
<div
  class="container"
>
  <div
    class="page-title py-3"
  >
    Test name
  </div>
   
  <div
    class="layout"
  >
    <div
      class="flex"
    >
      <div
        class="v-card"
      >
        <div
          class="recipe-picture v-card__media"
          style="height: 300px;"
        >
          <div
            class="v-card__media__background"
          />
          <div
            class="v-card__media__content"
          >
            <span
              class="v-chip vegetarian-label v-chip--label v-chip--small orange black--text"
              tabindex="0"
            >
              <span
                class="v-chip__content"
              >
                <i
                  aria-hidden="true"
                  class="v-icon v-icon--left material-icons"
                >
                  pets
                </i>
                Not vegetarian
          
              </span>
            </span>
             
            <span
              class="number-of-people mr-1"
            >
              
            2 
              <i
                aria-hidden="true"
                class="v-icon material-icons"
                style="font-size: 28px;"
              >
                person
              </i>
            </span>
          </div>
        </div>
         
        <div
          class="v-card__text recipe-details"
        >
          <div
            class="title my-2"
          >
            Ingredients:
          </div>
           
          <div
            class="mb-3"
          >
            Test ingredients
          </div>
           
          <div
            class="title my-2"
          >
            Cooking instructions:
          </div>
           
          <div>
            Test cooking instructions
          </div>
           
          <div
            class="creation-date"
          >
            19 Jul, 2018
          </div>
        </div>
      </div>
    </div>
  </div>
</div>
`;
